{
    "dependencies": [

    ],
    "controller_filename": "controller.php",
    "routes": {

    },
    "response_postprocess": {

    },
    "request_preprocess": {
        "": ""
    },
    "install": {

    },
    "settings_url": "",
    "theme_dependencies": {
        "jquery":"jquery"
    },
    "hooks": {
        "": ""
    }
}